Epoch	LR	Train Loss	Val Loss	Train Acc	Val Acc
1.000000	0.001000	0.002781	0.000956	0.075784	0.170717
2.000000	0.001000	0.001265	0.166779	0.165399	0.243454
3.000000	0.001000	0.000914	0.002532	0.233123	0.303791
4.000000	0.001000	0.000459	0.000425	0.301227	0.419032
5.000000	0.001000	0.000429	0.000420	0.379910	0.481807
6.000000	0.001000	0.000412	0.001287	0.442145	0.543045
7.000000	0.001000	0.000395	0.045912	0.493419	0.555321
8.000000	0.001000	0.000382	0.001392	0.531376	0.607866
9.000000	0.001000	0.000371	0.000349	0.560892	0.630390
10.000000	0.001000	0.000362	0.000801	0.586270	0.639226
11.000000	0.001000	0.000354	0.000818	0.605601	0.619420
12.000000	0.001000	0.000348	0.000433	0.618845	0.655886
13.000000	0.001000	0.000343	0.000381	0.633848	0.662879
14.000000	0.001000	0.000338	0.000321	0.644797	0.693628
15.000000	0.001000	0.000333	0.000322	0.656277	0.698295
16.000000	0.000100	0.000322	0.000315	0.678718	0.715743
17.000000	0.000100	0.000318	0.000312	0.685931	0.718158
18.000000	0.000010	0.000316	0.000312	0.691370	0.721498
19.000000	0.000010	0.000316	0.000313	0.692346	0.720878
20.000000	0.000010	0.000316	0.000313	0.692214	0.721267

Number of parameters  2670512

Train Enlapsed Time 03:49:54.52
                                                                                                                                                                                                                                                                                      
Final validation PCKh scores:

  Head    Shoulder    Elbow    Wrist    Hip    Knee    Ankle    Mean
------  ----------  -------  -------  -----  ------  -------  ------
 91.68       86.16    76.41    67.95  73.86   65.83    59.16   74.68
Inference Enlapsed Time 00:01:19.84

Input size (MB): 0.75
Forward/backward pass size (MB): 1617.76
Params size (MB): 10.19
Estimated Total Size (MB): 1628.70
